Aula 3 - Manipulação de dados com datas
…
```r
#Criando uma variavel - horario da decolagem
nycflights13::flights %>% 
  select(year, month, day, hour, minute) %>% 
  mutate(departure = make_datetime(year, month, day, hour, minute))
```

```
## # A tibble: 336,776 x 6
##     year month   day  hour minute departure          
##    <int> <int> <int> <dbl>  <dbl> <dttm>             
##  1  2013     1     1     5     15 2013-01-01 05:15:00
##  2  2013     1     1     5     29 2013-01-01 05:29:00
##  3  2013     1     1     5     40 2013-01-01 05:40:00
##  4  2013     1     1     5     45 2013-01-01 05:45:00
##  5  2013     1     1     6      0 2013-01-01 06:00:00
##  6  2013     1     1     5     58 2013-01-01 05:58:00
##  7  2013     1     1     6      0 2013-01-01 06:00:00
##  8  2013     1     1     6      0 2013-01-01 06:00:00
##  9  2013     1     1     6      0 2013-01-01 06:00:00
## 10  2013     1     1     6      0 2013-01-01 06:00:00
## # … with 336,766 more rows
```
…
---
#Formatar datas em tibbles

```
## # A tibble: 328,063 x 9
##    origin dest  dep_delay arr_delay dep_time            sched_dep_time     
##    <chr>  <chr>     <dbl>     <dbl> <dttm>              <dttm>             
##  1 EWR    IAH           2        11 2013-01-01 05:17:00 2013-01-01 05:15:00
##  2 LGA    IAH           4        20 2013-01-01 05:33:00 2013-01-01 05:29:00
##  3 JFK    MIA           2        33 2013-01-01 05:42:00 2013-01-01 05:40:00
##  4 JFK    BQN          -1       -18 2013-01-01 05:44:00 2013-01-01 05:45:00
##  5 LGA    ATL          -6       -25 2013-01-01 05:54:00 2013-01-01 06:00:00
##  6 EWR    ORD          -4        12 2013-01-01 05:54:00 2013-01-01 05:58:00
##  7 EWR    FLL          -5        19 2013-01-01 05:55:00 2013-01-01 06:00:00
##  8 LGA    IAD          -3       -14 2013-01-01 05:57:00 2013-01-01 06:00:00
##  9 JFK    MCO          -3        -8 2013-01-01 05:57:00 2013-01-01 06:00:00
## 10 LGA    ORD          -2         8 2013-01-01 05:58:00 2013-01-01 06:00:00
## # … with 328,053 more rows, and 3 more variables: arr_time <dttm>,
## #   sched_arr_time <dttm>, air_time <dbl>
```
…
---
#Aproximando datas

```r
#Criando uma variavel que contem a semana do instante da decolagem
flights_dt %>% 
  count(week = floor_date(dep_time, "week"))
```

```
## # A tibble: 53 x 2
##    week                    n
##    <dttm>              <int>
##  1 2012-12-30 00:00:00  4300
##  2 2013-01-06 00:00:00  6082
##  3 2013-01-13 00:00:00  5976
##  4 2013-01-20 00:00:00  5925
##  5 2013-01-27 00:00:00  5774
##  6 2013-02-03 00:00:00  5160
##  7 2013-02-10 00:00:00  6081
##  8 2013-02-17 00:00:00  6253
##  9 2013-02-24 00:00:00  6275
## 10 2013-03-03 00:00:00  6027
## # … with 43 more rows
```

```r
flights_dt 
```

```
## # A tibble: 328,063 x 9
##    origin dest  dep_delay arr_delay dep_time            sched_dep_time     
##    <chr>  <chr>     <dbl>     <dbl> <dttm>              <dttm>             
##  1 EWR    IAH           2        11 2013-01-01 05:17:00 2013-01-01 05:15:00
##  2 LGA    IAH           4        20 2013-01-01 05:33:00 2013-01-01 05:29:00
##  3 JFK    MIA           2        33 2013-01-01 05:42:00 2013-01-01 05:40:00
##  4 JFK    BQN          -1       -18 2013-01-01 05:44:00 2013-01-01 05:45:00
##  5 LGA    ATL          -6       -25 2013-01-01 05:54:00 2013-01-01 06:00:00
##  6 EWR    ORD          -4        12 2013-01-01 05:54:00 2013-01-01 05:58:00
##  7 EWR    FLL          -5        19 2013-01-01 05:55:00 2013-01-01 06:00:00
##  8 LGA    IAD          -3       -14 2013-01-01 05:57:00 2013-01-01 06:00:00
##  9 JFK    MCO          -3        -8 2013-01-01 05:57:00 2013-01-01 06:00:00
## 10 LGA    ORD          -2         8 2013-01-01 05:58:00 2013-01-01 06:00:00
## # … with 328,053 more rows, and 3 more variables: arr_time <dttm>,
## #   sched_arr_time <dttm>, air_time <dbl>
```
…
```r
flights_dt %>% 
  mutate(minute = minute(dep_time)) %>% 
  group_by(minute) %>% 
  summarise(
    avg_delay = mean(arr_delay, na.rm = TRUE),
    n = n()) 
```

---
#Aproximando datas

```
## # A tibble: 60 x 3
##    minute avg_delay     n
##     <int>     <dbl> <int>
##  1      0      5.26  7160
##  2      1      8.94  5256
##  3      2      9.59  5110
##  4      3      9.19  5105
##  5      4     10.5   4916
##  6      5      8.82  5106
##  7      6     10.5   4728
##  8      7     10.3   4673
##  9      8     10.9   4772
## 10      9     10.7   4821
## # … with 50 more rows
```
…
